Access to data from the LifeWatch Data Explorer • lwdataexplorer
…
library(lwdataexplorer)
library(tibble) # only for visualizing

df <- getBuoyData("2021-03-19", "2021-04-21", "All")
#> No encoding supplied: defaulting to UTF-8.
#> Query parameters
#> ---------------------------------------------
#> daterange : c("2021-03-19", "2021-04-21")
#> stationlist : All
#> type : Buoy data
#> ---------------------------------------------
#> Data dimension: (2384 x 23)

as_tibble(df)
#> # A tibble: 2,384 × 23
#>    STATION      TIME       LATITUDE LONGITUDE `AIR TEMPERATURE… `ATMPRESS (MBAR…
#>    <chr>        <chr>         <dbl>     <dbl>             <dbl>            <dbl>
#>  1 Buoy in Spu… 2021-03-1…     51.2      2.95              6.35            1022.
#>  2 Ostend Rese… 2021-03-1…     51.2      2.92              6.10              NA 
#>  3 Spuikom Slu… 2021-03-1…     51.2      2.94             NA                 NA 
#>  4 Spuikom Slu… 2021-03-1…     51.2      2.94             NA                 NA 
#>  5 Buoy in Spu… 2021-03-1…     51.2      2.95              5.66            1023.
#>  6 Ostend Rese… 2021-03-1…     51.2      2.92              5.56              NA 
#>  7 Buoy in Spu… 2021-03-1…     51.2      2.95              5.40            1024.
#>  8 Ostend Rese… 2021-03-1…     51.2      2.92              5.25              NA 
#>  9 Spuikom Slu… 2021-03-1…     51.2      2.94             NA                 NA 
#> 10 Spuikom Slu… 2021-03-1…     51.2      2.94             NA                 NA 
#> # … with 2,374 more rows, and 17 more variables:
#> #   AVG WIND DIRECTION (DEG) <dbl>, AVG WIND SPEED (M/S) <dbl>,
#> #   RELHUMIDITY (%) <dbl>, SOLARENERGY (W/M²) <dbl>, VOLTAGE (V) <dbl>,
#> #   ATMPRESS(MBAR) <dbl>, RELHUMIDITY(%) <dbl>,
#> #   LEVEL HARBOUR (MTAW) 1MIN <dbl>, LEVEL HARBOUR (MTAW) <dbl>,
#> #   LEVEL SPUIKOM (MTAW) <dbl>, RAIN15 (MM) <dbl>, NO3 (PPB) <dbl>,
#> #   SIO2 (PPB) <dbl>, RAIN (MM) <dbl>, DO (MG/L) <int>, SALINITY (PSU) <int>,
#> #   WATER TEMPERATURE (°C) <int>
…
Wrapper functions

Besides the functions that start with get, you can use the lwdata function. This is a wrapper for all the other get functions. You have to provide the data type as an argument and all the other query parameters for the specific data type. Find more info with ?lwdata()

For instance, You can request the list of ETN projects with its specific function listETNprojects() or using lwdata():

etn <- lwdata('listETNprojects')
#> No encoding supplied: defaulting to UTF-8.

as_tibble(etn)
#> # A tibble: 169 × 2
#>    name                     type   
#>    <chr>                    <chr>  
#>  1 2004_Gudena              network
#>  2 2011_Loire               network
#>  3 2011_Warnow              network
#>  4 2013_Foyle               network
#>  5 2013_Maas                network
#>  6 2014_Nene                network
#>  7 2015_PhD_Gutmann_Roberts network
#>  8 2016_Diaccia_Botrona     network
#>  9 2017_Fremur              network
#> 10 2019_Grotenete           network
#> # … with 159 more rows
…
