…
``` r
library(lwdataexplorer)
library(tibble) # only for visualizing

df <- getBuoyData("2021-03-19", "2021-04-21", "All")
#> - Query mode: Database connection
#> Date passed as text. Trying to transform to date
#> - Query parameters:
#>    - daterange: c("2021-03-19", "2021-04-21")
#>    - stationlist: All
#>    - type: Buoy data

as_tibble(df)
#> # A tibble: 2,384 × 39
#>    Station               Time                Latitude Longitude `Air temperatur…
#>    <fct>                 <dttm>                 <dbl>     <dbl>            <dbl>
#>  1 Buoy in Spuikom       2021-03-19 00:00:00     51.2      2.95             6.35
#>  2 Ostend Research Tower 2021-03-19 00:00:00     51.2      2.92             6.10
#>  3 Spuikom Sluice        2021-03-19 00:00:00     51.2      2.94            NA   
#>  4 Spuikom Sluice        2021-03-19 01:00:00     51.2      2.94            NA   
#>  5 Buoy in Spuikom       2021-03-19 01:00:00     51.2      2.95             5.66
#>  6 Ostend Research Tower 2021-03-19 01:00:00     51.2      2.92             5.56
#>  7 Buoy in Spuikom       2021-03-19 02:00:00     51.2      2.95             5.40
#>  8 Ostend Research Tower 2021-03-19 02:00:00     51.2      2.92             5.25
#>  9 Spuikom Sluice        2021-03-19 02:00:00     51.2      2.94            NA   
#> 10 Spuikom Sluice        2021-03-19 03:00:00     51.2      2.94            NA   
#> # … with 2,374 more rows, and 34 more variables: AtmPress(mBar) <dbl>,
#> #   Avg Wind direction (deg) <dbl>, Avg Wind speed (m/s) <dbl>,
#> #   Chlorophyll (µg/L) <dbl>, Conductivity (mS/cm) <dbl>,
#> #   Dissolved oxygen (µM) <dbl>, DO (mg/l) <dbl>, Level Harbour (mTAW) <dbl>,
#> #   Level Spuikom (mTAW) <dbl>, NH3 (ppb) <dbl>, NO3 (ppb) <dbl>,
#> #   Oxygen sat. (%) <dbl>, pCO2 air (ppm) <dbl>, pH (raw) <dbl>,
#> #   PO4 (ppb) <dbl>, Rain (mm) <dbl>, Rain15 (mm) <dbl>, …
```
…
Besides the functions that start with `get`, you can use the `lwdata`
function. This is a wrapper for all the other `get` functions. You have
to provide the data type as an argument and all the other query
parameters for the specific data type. Find more info with `?lwdata()`

For instance, You can request the list of ETN projects with its specific
function `listETNprojects()` or using `lwdata()`:

``` r
etn <- lwdata('listETNprojects')
#> - Query mode: Database connection

as_tibble(etn)
#> # A tibble: 192 × 2
#>    name                     type   
#>    <fct>                    <chr>  
#>  1 2004_Gudena              network
#>  2 2011_Loire               network
#>  3 2011_Warnow              network
#>  4 2013_Foyle               network
#>  5 2013_Maas                network
#>  6 2014_Nene                network
#>  7 2015_PhD_Gutmann_Roberts network
#>  8 2016_Diaccia_Botrona     network
#>  9 2017_Fremur              network
#> 10 2019_Grotenete           network
#> # … with 182 more rows
```
…
